<?xml version="1.0" encoding="utf-8"?>
<!-- Generator: Adobe Illustrator 15.0.0, SVG Export Plug-In . SVG Version: 6.00 Build 0)  -->
<!DOCTYPE svg PUBLIC "-//W3C//DTD SVG 1.1//EN" "http://www.w3.org/Graphics/SVG/1.1/DTD/svg11.dtd">
<svg version="1.1" id="Layer_1" xmlns="http://www.w3.org/2000/svg" xmlns:xlink="http://www.w3.org/1999/xlink" x="0px" y="0px"
	 width="30.87px" height="33.81px" viewBox="0 0 30.87 33.81" enable-background="new 0 0 30.87 33.81" xml:space="preserve">
<path fill="#FFFFFF" d="M11.79,13.32c-0.15,0.49,0.17,0.97,1.05,0.23c2.31-2.18,2.36-4.34-0.08-6.5C11.15,5.63,7.3,4.14,7.99,0.41
	C8.1-0.07,7.76-0.14,7.5,0.27C3.28,7.27,13.38,8.23,11.79,13.32"/>
<path fill="#FFFFFF" d="M15.22,12.13c-0.29,0.38,0.17,0.53,0.54,0.32c2.22-1.22,3.07-2.55,2.55-3.88c-0.87-2.12-4.79-2.93-5.96-4.58
	c-0.19-0.26-0.45-0.27-0.4,0.2C12.29,6.75,18.43,7.89,15.22,12.13"/>
<path fill="#FFFFFF" d="M30.66,20.23c-0.59-1.98-2.66-3.09-4.65-2.81c0.01-0.48,0.02-0.91,0.01-1.27c-0.05-0.77-0.25-1.31-1.36-1.28
	H13.01H1.36C0.25,14.83,0.06,15.38,0,16.15c-0.05,3.44,0.48,13,7.51,17.01c0,0-0.21,0.21-0.07,0.52c0.05,0.1,0.11,0.14,0.25,0.14
	h5.32h5.32c0.14,0,0.2-0.03,0.25-0.14c0.14-0.31-0.07-0.52-0.07-0.52c1.52-0.87,2.73-1.99,3.71-3.26c1.22,0.02,3.79-0.3,6-2.26
	C30.31,25.78,31.34,22.54,30.66,20.23 M6.76,28.16c-0.09,0.07-0.2,0.1-0.3,0.1c-0.15,0-0.31-0.07-0.4-0.2
	c-3.73-5.04-3.11-9.76-3.08-9.96c0.04-0.27,0.29-0.47,0.57-0.43c0.27,0.04,0.47,0.29,0.43,0.57c-0.01,0.04-0.58,4.53,2.9,9.22
	C7.03,27.69,6.98,28,6.76,28.16 M27.25,26.14c-1.18,1.21-2.75,1.73-3.85,1.94c1.66-2.99,2.29-6.4,2.51-9.01
	C30.09,18.57,29.83,23.5,27.25,26.14"/>
</svg>
